{
	"01": "第01类-化工原料",
	"02": "第02类-颜料油漆",
	"03": "第03类-日化用品",
	"04": "第04类-燃料油脂",
	"05": "第05类-医用用品",
	"06": "第06类-金属材料",
	"07": "第07类-机械设备",
	"08": "第08类-手工器械",
	"09": "第09类-电子器具",
	"10": "第10类-医疗器械",
	"11": "第11类-灯具空调",
	"12": "第12类-运输工具",
	"13": "第13类-军火烟火",
	"14": "第14类-珠宝钟表",
	"15": "第15类-乐器用品",
	"16": "第16类-办公用品",
	"17": "第17类-橡胶制品",
	"18": "第18类-皮革皮具",
	"19": "第19类-建筑材料",
	"20": "第20类-家具制品",
	"21": "第21类-厨房洁具",
	"22": "第22类-绳网袋蓬",
	"23": "第23类-纱线丝毛",
	"24": "第24类-布料床单",
	"25": "第25类-服装鞋帽",
	"26": "第26类-纽扣拉链",
	"27": "第27类-地毯席垫",
	"28": "第28类-健身器材",
	"29": "第29类-熟制食品",
	"30": "第30类-方便食品",
	"31": "第31类-饲料种籽",
	"32": "第32类-啤酒饮料",
	"33": "第33类-含酒精酒",
	"34": "第34类-烟草烟具",
	"35": "第35类-广告销售",
	"36": "第36类-金融物管",
	"37": "第37类-建筑修理",
	"38": "第38类-通讯服务",
	"39": "第39类-运输贮藏",
	"40": "第40类-材料加工",
	"41": "第41类-教育娱乐",
	"42": "第42类-技能服务",
	"43": "第43类-餐饮住宿",
	"44": "第44类-医疗园艺",
	"45": "第45类-社会服务"
}
